module gitlab.com/echoblog/users/srv

require (
	github.com/Azure/go-ansiterm v0.0.0-20170929234023-d6e3b3328b78 // indirect
	github.com/DataDog/datadog-go v0.0.0-20180822151419-281ae9f2d895 // indirect
	github.com/Jeffail/gabs v1.1.1 // indirect
	github.com/Microsoft/go-winio v0.4.11 // indirect
	github.com/NYTimes/gziphandler v1.0.1 // indirect
	github.com/Nvveen/Gotty v0.0.0-20120604004816-cd527374f1e5 // indirect
	github.com/SAP/go-hdb v0.13.1 // indirect
	github.com/SermoDigital/jose v0.9.1 // indirect
	github.com/StackExchange/wmi v0.0.0-20180725035823-b12b22c5341f // indirect
	github.com/afex/hystrix-go v0.0.0-20180502004556-fa1af6a1f4f5 // indirect
	github.com/armon/circbuf v0.0.0-20150827004946-bbbad097214e // indirect
	github.com/armon/go-metrics v0.0.0-20180917152333-f0300d1749da // indirect
	github.com/armon/go-radix v1.0.0 // indirect
	github.com/asaskevich/govalidator v0.0.0-20180720115003-f9ffefc3facf // indirect
	github.com/beorn7/perks v0.0.0-20180321164747-3a771d992973 // indirect
	github.com/bitly/go-hostpool v0.0.0-20171023180738-a3a6125de932 // indirect
	github.com/bmizerany/assert v0.0.0-20160611221934-b7ed37b82869 // indirect
	github.com/boltdb/bolt v1.3.1 // indirect
	github.com/cenkalti/backoff v2.0.0+incompatible // indirect
	github.com/circonus-labs/circonus-gometrics v2.2.4+incompatible // indirect
	github.com/circonus-labs/circonusllhist v0.1.2 // indirect
	github.com/codahale/hdrhistogram v0.0.0-20161010025455-3a0bb77429bd // indirect
	github.com/containerd/continuity v0.0.0-20181027224239-bea7585dbfac // indirect
	github.com/coredns/coredns v1.2.6 // indirect
	github.com/denisenkom/go-mssqldb v0.0.0-20181014144952-4e0d7dc8888f // indirect
	github.com/docker/go-connections v0.4.0 // indirect
	github.com/docker/go-units v0.3.3 // indirect
	github.com/duosecurity/duo_api_golang v0.0.0-20181024123116-92fea9203dbc // indirect
	github.com/elazarl/go-bindata-assetfs v1.0.0 // indirect
	github.com/envoyproxy/go-control-plane v0.6.3 // indirect
	github.com/erikstmartin/go-testdb v0.0.0-20160219214506-8d10e4a1bae5 // indirect
	github.com/fatih/structs v1.1.0 // indirect
	github.com/go-ldap/ldap v2.5.1+incompatible // indirect
	github.com/go-log/log v0.1.0 // indirect
	github.com/go-ole/go-ole v1.2.1 // indirect
	github.com/go-playground/locales v0.12.1 // indirect
	github.com/go-playground/universal-translator v0.16.0 // indirect
	github.com/go-playground/validator v9.23.0+incompatible // indirect
	github.com/go-sql-driver/mysql v1.4.1
	github.com/go-test/deep v1.0.1 // indirect
	github.com/gocql/gocql v0.0.0-20181124151448-70385f88b28b // indirect
	github.com/gogo/googleapis v1.1.0 // indirect
	github.com/golang/protobuf v1.2.0
	github.com/golang/snappy v0.0.0-20180518054509-2e65f85255db // indirect
	github.com/google/go-cmp v0.2.0 // indirect
	github.com/google/go-github v17.0.0+incompatible // indirect
	github.com/google/uuid v1.1.0 // indirect
	github.com/gotestyourself/gotestyourself v2.2.0+incompatible // indirect
	github.com/hashicorp/consul v1.4.0 // indirect
	github.com/hashicorp/go-discover v0.0.0-20180831154906-f9c9239562a8 // indirect
	github.com/hashicorp/go-hclog v0.0.0-20181001195459-61d530d6c27f // indirect
	github.com/hashicorp/go-immutable-radix v1.0.0 // indirect
	github.com/hashicorp/go-memdb v0.0.0-20181108192425-032f93b25bec // indirect
	github.com/hashicorp/go-msgpack v0.0.0-20150518234257-fa3f63826f7c // indirect
	github.com/hashicorp/go-plugin v0.0.0-20181030172320-54b6ff97d818 // indirect
	github.com/hashicorp/go-retryablehttp v0.5.0 // indirect
	github.com/hashicorp/go-rootcerts v0.0.0-20160503143440-6bb64b370b90 // indirect
	github.com/hashicorp/go-sockaddr v0.0.0-20180320115054-6d291a969b86 // indirect
	github.com/hashicorp/go-syslog v0.0.0-20170829120034-326bf4a7f709 // indirect
	github.com/hashicorp/go-version v1.0.0 // indirect
	github.com/hashicorp/hcl v1.0.0 // indirect
	github.com/hashicorp/hil v0.0.0-20170627220502-fa9f258a9250 // indirect
	github.com/hashicorp/logutils v1.0.0 // indirect
	github.com/hashicorp/memberlist v0.1.0 // indirect
	github.com/hashicorp/net-rpc-msgpackrpc v0.0.0-20151116020338-a14192a58a69 // indirect
	github.com/hashicorp/raft v1.0.0 // indirect
	github.com/hashicorp/raft-boltdb v0.0.0-20171010151810-6e5ba93211ea // indirect
	github.com/hashicorp/serf v0.8.1 // indirect
	github.com/hashicorp/vault v0.11.5 // indirect
	github.com/hashicorp/vault-plugin-secrets-kv v0.0.0-20181106190520-2236f141171e // indirect
	github.com/hashicorp/yamux v0.0.0-20181012175058-2f1d1f20f75d // indirect
	github.com/jefferai/jsonx v0.0.0-20160721235117-9cc31c3135ee // indirect
	github.com/jinzhu/gorm v1.9.1
	github.com/jinzhu/inflection v0.0.0-20180308033659-04140366298a // indirect
	github.com/jinzhu/now v0.0.0-20181116074157-8ec929ed50c3 // indirect
	github.com/keybase/go-crypto v0.0.0-20181031135447-f919bfda4fc1 // indirect
	github.com/kr/pretty v0.1.0 // indirect
	github.com/labstack/echo v3.3.5+incompatible // indirect
	github.com/labstack/gommon v0.2.8 // indirect
	github.com/lib/pq v1.0.0 // indirect
	github.com/lyft/protoc-gen-validate v0.0.11 // indirect
	github.com/mattn/go-isatty v0.0.4 // indirect
	github.com/mattn/go-sqlite3 v1.10.0 // indirect
	github.com/matttproud/golang_protobuf_extensions v1.0.1 // indirect
	github.com/micro/cli v0.0.0-20180830071301-8b9d33ec2f19 // indirect
	github.com/micro/go-log v0.0.0-20170512141327-cbfa9447f9b6 // indirect
	github.com/micro/go-micro v0.14.1
	github.com/micro/go-plugins v0.16.1
	github.com/micro/go-rcache v0.0.0-20180418165751-a581a57b5133 // indirect
	github.com/micro/h2c v1.0.0 // indirect
	github.com/micro/mdns v0.0.0-20160929165650-cdf30746f9f7 // indirect
	github.com/micro/util v0.0.0-20181115195001-2d4f591dc538 // indirect
	github.com/miekg/dns v1.0.15 // indirect
	github.com/mitchellh/cli v1.0.0 // indirect
	github.com/mitchellh/copystructure v1.0.0 // indirect
	github.com/mitchellh/go-testing-interface v1.0.0 // indirect
	github.com/mitchellh/hashstructure v1.0.0 // indirect
	github.com/mitchellh/mapstructure v1.1.2 // indirect
	github.com/nats-io/gnatsd v1.3.0 // indirect
	github.com/nats-io/go-nats v1.7.0 // indirect
	github.com/nats-io/nkeys v0.0.2 // indirect
	github.com/nats-io/nuid v1.0.0 // indirect
	github.com/opencontainers/go-digest v1.0.0-rc1 // indirect
	github.com/opencontainers/image-spec v1.0.1 // indirect
	github.com/opencontainers/runc v0.1.1 // indirect
	github.com/opentracing/opentracing-go v1.0.2
	github.com/ory/dockertest v3.3.2+incompatible // indirect
	github.com/pascaldekloe/goe v0.0.0-20180627143212-57f6aae5913c // indirect
	github.com/patrickmn/go-cache v2.1.0+incompatible // indirect
	github.com/pierrec/lz4 v2.0.5+incompatible // indirect
	github.com/prometheus/client_golang v0.9.1 // indirect
	github.com/prometheus/client_model v0.0.0-20180712105110-5c3871d89910 // indirect
	github.com/prometheus/common v0.0.0-20181120120127-aeab699e26f4 // indirect
	github.com/prometheus/procfs v0.0.0-20181005140218-185b4288413d // indirect
	github.com/ryanuber/go-glob v0.0.0-20170128012129-256dc444b735 // indirect
	github.com/shirou/gopsutil v2.18.10+incompatible // indirect
	github.com/shirou/w32 v0.0.0-20160930032740-bb4de0191aa4 // indirect
	github.com/sirupsen/logrus v1.0.6
	github.com/smartystreets/goconvey v0.0.0-20181108003508-044398e4856c // indirect
	github.com/stretchr/objx v0.1.1 // indirect
	github.com/tv42/httpunix v0.0.0-20150427012821-b75d8614f926 // indirect
	github.com/uber-go/atomic v1.3.2 // indirect
	github.com/uber/jaeger-client-go v2.15.0+incompatible // indirect
	github.com/uber/jaeger-lib v1.5.0 // indirect
	github.com/valyala/bytebufferpool v1.0.0 // indirect
	github.com/valyala/fasttemplate v0.0.0-20170224212429-dcecefd839c4 // indirect
	gitlab.com/echoblog/utils v0.0.0-20181124212038-28a8886e0b75
	go.uber.org/atomic v1.3.2 // indirect
	go.uber.org/ratelimit v0.0.0-20180316092928-c15da0234277 // indirect
	gopkg.in/asn1-ber.v1 v1.0.0-20170511165959-379148ca0225 // indirect
	gopkg.in/go-playground/assert.v1 v1.2.1 // indirect
	gopkg.in/ldap.v2 v2.5.1 // indirect
	gopkg.in/mgo.v2 v2.0.0-20180705113604-9856a29383ce // indirect
	gopkg.in/vmihailenco/msgpack.v2 v2.9.1 // indirect
	gotest.tools v2.2.0+incompatible // indirect
)
